EESchema Schematic File Version 4
EELAYER 30 0
EELAYER END
$Descr A4 11693 8268
encoding utf-8
Sheet 3 4
Title ""
Date ""
Rev ""
Comp ""
Comment1 ""
Comment2 ""
Comment3 ""
Comment4 ""
$EndDescr
$Comp
L Display_Character:HY1602E LCD
U 1 1 62B16F6B
P 6100 3200
F 0 "LCD" H 6100 4181 50  0000 C CNN
F 1 " " H 6100 4090 50  0000 C CNN
F 2 "Display:HY1602E" H 6100 2300 50  0001 C CIN
F 3 "http://www.icbank.com/data/ICBShop/board/HY1602E.pdf" H 6300 3300 50  0001 C CNN
	1    6100 3200
	1    0    0    -1  
$EndComp
Text HLabel 5500 3100 0    50   Input ~ 0
DB0
Text HLabel 5500 3200 0    50   Input ~ 0
DB1
Text HLabel 5500 3300 0    50   Input ~ 0
DB2
Text HLabel 5500 3400 0    50   Input ~ 0
DB3
Text HLabel 5500 3500 0    50   Input ~ 0
DB4
Text HLabel 5500 3600 0    50   Input ~ 0
DB5
Text HLabel 5500 3700 0    50   Input ~ 0
DB6
Text HLabel 5500 3800 0    50   Input ~ 0
DB7
Wire Wire Line
	5700 3100 5500 3100
Wire Wire Line
	5700 3200 5500 3200
Wire Wire Line
	5700 3300 5500 3300
Wire Wire Line
	5700 3400 5500 3400
Wire Wire Line
	5700 3500 5500 3500
Wire Wire Line
	5700 3600 5500 3600
Wire Wire Line
	5700 3700 5500 3700
Wire Wire Line
	5700 3800 5500 3800
$Comp
L Device:R R1
U 1 1 62B181E0
P 6750 3200
F 0 "R1" V 6543 3200 50  0000 C CNN
F 1 "330" V 6634 3200 50  0000 C CNN
F 2 "" V 6680 3200 50  0001 C CNN
F 3 "~" H 6750 3200 50  0001 C CNN
	1    6750 3200
	0    1    1    0   
$EndComp
$Comp
L power:GND #PWR?
U 1 1 62B18888
P 6900 3300
F 0 "#PWR?" H 6900 3050 50  0001 C CNN
F 1 "GND" V 6905 3172 50  0000 R CNN
F 2 "" H 6900 3300 50  0001 C CNN
F 3 "" H 6900 3300 50  0001 C CNN
	1    6900 3300
	0    -1   -1   0   
$EndComp
$Comp
L power:GND #PWR?
U 1 1 62B1A7E7
P 6100 4100
F 0 "#PWR?" H 6100 3850 50  0001 C CNN
F 1 "GND" V 6105 3972 50  0000 R CNN
F 2 "" H 6100 4100 50  0001 C CNN
F 3 "" H 6100 4100 50  0001 C CNN
	1    6100 4100
	1    0    0    -1  
$EndComp
Wire Wire Line
	6100 4100 6100 4000
Wire Wire Line
	6600 3200 6500 3200
Wire Wire Line
	6900 3300 6500 3300
Text HLabel 5450 2600 0    50   Input ~ 0
E
Text HLabel 5450 2800 0    50   Input ~ 0
RW
Wire Wire Line
	5700 2600 5450 2600
Wire Wire Line
	5700 2800 5450 2800
$Comp
L power:GND #PWR?
U 1 1 62B1C115
P 5500 2900
F 0 "#PWR?" H 5500 2650 50  0001 C CNN
F 1 "GND" V 5505 2772 50  0000 R CNN
F 2 "" H 5500 2900 50  0001 C CNN
F 3 "" H 5500 2900 50  0001 C CNN
	1    5500 2900
	0    1    1    0   
$EndComp
Wire Wire Line
	5700 2900 5500 2900
$Comp
L power:+5V #PWR?
U 1 1 62B1C93D
P 6100 2050
F 0 "#PWR?" H 6100 1900 50  0001 C CNN
F 1 "+5V" H 6115 2223 50  0000 C CNN
F 2 "" H 6100 2050 50  0001 C CNN
F 3 "" H 6100 2050 50  0001 C CNN
	1    6100 2050
	1    0    0    -1  
$EndComp
Wire Wire Line
	6100 2400 6100 2050
$Comp
L power:+5V #PWR?
U 1 1 62B1D6C0
P 7100 3200
F 0 "#PWR?" H 7100 3050 50  0001 C CNN
F 1 "+5V" V 7115 3328 50  0000 L CNN
F 2 "" H 7100 3200 50  0001 C CNN
F 3 "" H 7100 3200 50  0001 C CNN
	1    7100 3200
	0    1    1    0   
$EndComp
Wire Wire Line
	7100 3200 6900 3200
$Comp
L Device:R_POT R2
U 1 1 62B1E179
P 7100 2600
F 0 "R2" H 7030 2554 50  0000 R CNN
F 1 "R_POT" H 7030 2645 50  0000 R CNN
F 2 "" H 7100 2600 50  0001 C CNN
F 3 "~" H 7100 2600 50  0001 C CNN
	1    7100 2600
	-1   0    0    1   
$EndComp
$Comp
L power:GND #PWR?
U 1 1 62B1EA6B
P 7100 2850
F 0 "#PWR?" H 7100 2600 50  0001 C CNN
F 1 "GND" H 7105 2677 50  0000 C CNN
F 2 "" H 7100 2850 50  0001 C CNN
F 3 "" H 7100 2850 50  0001 C CNN
	1    7100 2850
	1    0    0    -1  
$EndComp
$Comp
L power:+5V #PWR?
U 1 1 62B1F0EB
P 7100 2350
F 0 "#PWR?" H 7100 2200 50  0001 C CNN
F 1 "+5V" H 7115 2523 50  0000 C CNN
F 2 "" H 7100 2350 50  0001 C CNN
F 3 "" H 7100 2350 50  0001 C CNN
	1    7100 2350
	1    0    0    -1  
$EndComp
Wire Wire Line
	7100 2450 7100 2350
Wire Wire Line
	7100 2750 7100 2850
Wire Wire Line
	6950 2600 6500 2600
$EndSCHEMATC
