EESchema Schematic File Version 4
EELAYER 30 0
EELAYER END
$Descr A4 11693 8268
encoding utf-8
Sheet 1 4
Title ""
Date ""
Rev ""
Comp ""
Comment1 ""
Comment2 ""
Comment3 ""
Comment4 ""
$EndDescr
$Sheet
S 5250 2050 950  1800
U 62AE04A0
F0 "STM8s Nucleo" 50
F1 "STM8s Nucleo.sch" 50
F2 "PD0" O L 5250 2150 50 
F3 "PD1" O L 5250 2250 50 
F4 "PD2" O L 5250 2350 50 
F5 "PD3" O L 5250 2450 50 
F6 "PD4" O L 5250 2550 50 
F7 "PD5" O L 5250 2650 50 
F8 "PD6" O L 5250 2750 50 
F9 "PD7" O L 5250 2850 50 
F10 "PB0" I L 5250 3100 50 
F11 "PB1" I L 5250 3200 50 
F12 "PC6" O L 5250 3400 50 
F13 "PC7" O L 5250 3500 50 
$EndSheet
$Sheet
S 3550 2000 750  1600
U 62B15784
F0 "LCD" 50
F1 "LCD.sch" 50
F2 "DB0" I R 4300 2150 50 
F3 "DB1" I R 4300 2250 50 
F4 "DB2" I R 4300 2350 50 
F5 "DB3" I R 4300 2450 50 
F6 "DB4" I R 4300 2550 50 
F7 "DB5" I R 4300 2650 50 
F8 "DB6" I R 4300 2750 50 
F9 "DB7" I R 4300 2850 50 
F10 "E" I R 4300 3400 50 
F11 "RW" I R 4300 3500 50 
$EndSheet
Wire Wire Line
	5250 2150 4300 2150
Wire Wire Line
	5250 2250 4300 2250
Wire Wire Line
	5250 2350 4300 2350
Wire Wire Line
	5250 2450 4300 2450
Wire Wire Line
	5250 2550 4300 2550
Wire Wire Line
	5250 2650 4300 2650
Wire Wire Line
	5250 2750 4300 2750
Wire Wire Line
	5250 2850 4300 2850
Wire Wire Line
	4300 3400 5250 3400
Wire Wire Line
	4300 3500 5250 3500
$Sheet
S 4450 4100 500  150 
U 62B25485
F0 "thermistors" 50
F1 "thermistor.sch" 50
F2 "TH1" O R 4950 4150 50 
F3 "TH2" O L 4450 4150 50 
$EndSheet
Wire Wire Line
	4950 4150 5100 4150
Wire Wire Line
	5100 4150 5100 3100
Wire Wire Line
	5100 3100 5250 3100
Wire Wire Line
	4450 4150 4400 4150
Wire Wire Line
	4400 4150 4400 3200
Wire Wire Line
	4400 3200 5250 3200
$EndSCHEMATC
