EESchema Schematic File Version 4
EELAYER 30 0
EELAYER END
$Descr A4 11693 8268
encoding utf-8
Sheet 4 4
Title ""
Date ""
Rev ""
Comp ""
Comment1 ""
Comment2 ""
Comment3 ""
Comment4 ""
$EndDescr
$Comp
L Device:Thermistor TH1
U 1 1 62B255F2
P 5950 3150
F 0 "TH1" H 6055 3196 50  0000 L CNN
F 1 "100K" H 6055 3105 50  0000 L CNN
F 2 "" H 5950 3150 50  0001 C CNN
F 3 "~" H 5950 3150 50  0001 C CNN
	1    5950 3150
	1    0    0    -1  
$EndComp
$Comp
L Device:Thermistor TH2
U 1 1 62B2615D
P 6550 3150
F 0 "TH2" H 6655 3196 50  0000 L CNN
F 1 "10K" H 6655 3105 50  0000 L CNN
F 2 "" H 6550 3150 50  0001 C CNN
F 3 "~" H 6550 3150 50  0001 C CNN
	1    6550 3150
	1    0    0    -1  
$EndComp
$Comp
L Device:R R1
U 1 1 62B26243
P 5950 3600
F 0 "R1" H 6020 3646 50  0000 L CNN
F 1 "100K" H 6020 3555 50  0000 L CNN
F 2 "" V 5880 3600 50  0001 C CNN
F 3 "~" H 5950 3600 50  0001 C CNN
	1    5950 3600
	1    0    0    -1  
$EndComp
$Comp
L Device:R R2
U 1 1 62B26995
P 6550 3600
F 0 "R2" H 6620 3646 50  0000 L CNN
F 1 "10K" H 6620 3555 50  0000 L CNN
F 2 "" V 6480 3600 50  0001 C CNN
F 3 "~" H 6550 3600 50  0001 C CNN
	1    6550 3600
	1    0    0    -1  
$EndComp
Wire Wire Line
	6550 3350 6550 3400
Wire Wire Line
	5950 3350 5950 3400
$Comp
L power:+3.3V #PWR?
U 1 1 62B28AEE
P 6550 3900
F 0 "#PWR?" H 6550 3750 50  0001 C CNN
F 1 "+3.3V" H 6565 4073 50  0000 C CNN
F 2 "" H 6550 3900 50  0001 C CNN
F 3 "" H 6550 3900 50  0001 C CNN
	1    6550 3900
	-1   0    0    1   
$EndComp
$Comp
L power:+3.3V #PWR?
U 1 1 62B29B26
P 5950 3900
F 0 "#PWR?" H 5950 3750 50  0001 C CNN
F 1 "+3.3V" H 5965 4073 50  0000 C CNN
F 2 "" H 5950 3900 50  0001 C CNN
F 3 "" H 5950 3900 50  0001 C CNN
	1    5950 3900
	-1   0    0    1   
$EndComp
Wire Wire Line
	6550 3900 6550 3750
Wire Wire Line
	5950 3900 5950 3750
$Comp
L power:GND #PWR?
U 1 1 62B2AB2A
P 6550 2750
F 0 "#PWR?" H 6550 2500 50  0001 C CNN
F 1 "GND" H 6555 2577 50  0000 C CNN
F 2 "" H 6550 2750 50  0001 C CNN
F 3 "" H 6550 2750 50  0001 C CNN
	1    6550 2750
	-1   0    0    1   
$EndComp
$Comp
L power:GND #PWR?
U 1 1 62B2BDAB
P 5950 2750
F 0 "#PWR?" H 5950 2500 50  0001 C CNN
F 1 "GND" H 5955 2577 50  0000 C CNN
F 2 "" H 5950 2750 50  0001 C CNN
F 3 "" H 5950 2750 50  0001 C CNN
	1    5950 2750
	-1   0    0    1   
$EndComp
Wire Wire Line
	5950 2950 5950 2750
Wire Wire Line
	6550 2950 6550 2750
Text HLabel 5700 3400 0    50   Output ~ 0
TH1
Text HLabel 6900 3350 2    50   Output ~ 0
TH2
Wire Wire Line
	6900 3350 6600 3350
Wire Wire Line
	6600 3350 6600 3400
Wire Wire Line
	6600 3400 6550 3400
Connection ~ 6550 3400
Wire Wire Line
	6550 3400 6550 3450
Wire Wire Line
	5700 3400 5950 3400
Connection ~ 5950 3400
Wire Wire Line
	5950 3400 5950 3450
$EndSCHEMATC
